…
CREATE TABLE timestampTableSQL
  COMMENT 'This table is created with existing data'
  AS SELECT *, date_format(today, 'MM') AS month FROM
  (SELECT *, current_timestamp AS today FROM jsonTable)
  
```

``` r
## Now read that from sparklyr
spark_read_table(sc, "timestampTableSQL") %>% collect()
```

    ## # A tibble: 150 x 7
    ##    Petal.Length Petal.Width Sepal.Length Sepal.Width Species
    ##           <dbl>       <dbl>        <dbl>       <dbl> <chr>  
    ##  1          1.4         0.2          5.1         3.5 setosa 
    ##  2          1.4         0.2          4.9         3   setosa 
    ##  3          1.3         0.2          4.7         3.2 setosa 
    ##  4          1.5         0.2          4.6         3.1 setosa 
    ##  5          1.4         0.2          5           3.6 setosa 
    ##  6          1.7         0.4          5.4         3.9 setosa 
    ##  7          1.4         0.3          4.6         3.4 setosa 
    ##  8          1.5         0.2          5           3.4 setosa 
    ##  9          1.4         0.2          4.4         2.9 setosa 
    ## 10          1.5         0.1          4.9         3.1 setosa 
    ## # … with 140 more rows, and 2 more variables: today <dttm>, month <chr>
…
